AIRLINE,ALL_ECONOMY_PASSANGER,ALL_BUSINESS_PASSANGER,ALL_FIRST_PASSANGER,ALL_PASSANGER
AEGEAN,157,57,27,241
AER LINGUS,1481,387,199,2067
AIR BALTIC,1299,397,201,1897
AIR CHINA,13885,6487,2796,23168
AIR FRANCE,7803,2195,1130,11128
AUSTRIAN,5476,1581,783,7840
BLUEBIRD AIRWAYS,1907,516,248,2671
BRITISH AIRWAYS,12093,3405,1706,17204
BRUSSELS AIRLINES,6683,1900,952,9535
EASYJET,26378,0,0,26378
EGYPTAIR,2197,626,320,3143
EL AL,9263,2639,1282,13184
EMIRATES,2454,1116,512,4082
EUROWINGS,25823,0,0,25823
FINNAIR,4350,1202,584,6136
FLYDUBAI,1083,312,171,1566
JET2,14641,0,0,14641
KLM,6573,1798,928,9299
KOREAN AIR,710,312,137,1159
LOT,9126,4201,1863,15190
LUFTHANSA,16073,4566,2345,22984
LUXAIR,1053,319,145,1517
NORWEGIAN,21371,0,0,21371
PEGASUS,2320,0,0,2320
QATAR AIRWAYS,3238,977,465,4680
RYANAIR,224119,329,181,224629
SUNEXPRESS,8054,2362,1112,11528
SWISS,8574,2488,1223,12285
TAROM,2780,832,383,3995
TRANSAVIA,9675,0,0,9675
TURKISH AIRLINES,6497,1778,916,9191
WIZZ AIR,246493,0,0,246493
